,Hour,Count
0,0,0.6728037874802736
1,1,0.7946210268948656
2,3,0.3714670255720054
3,4,0.4754968341690151
4,5,0.5377978576113095
5,6,0.5597596304415909
6,7,0.5495060010846754
7,8,0.5569628368511408
8,9,0.5944840207510927
9,10,0.6522330446608933
10,11,0.6611291045891674
11,12,0.6632541099456967
12,13,0.6441978915781577
13,14,0.5808638307487594
14,15,0.5542654481774167
15,16,0.5529916010044159
16,17,0.5561036550125803
17,18,0.5650654816117584
18,19,0.5914985171832297
19,20,0.5971212312061286
20,21,0.6149355057705364
21,22,0.6164626759680856
22,23,0.5964017434851154
