"","err","mad","mse"
"k-NN (najlepszy)",0.556120603015075,0.723452261306533,1.13020603015075
"Lasy losowe",0.235422110552764,0.252467336683417,0.288557788944724
"Regresja logistyczna",0.516010050251256,0.598155778894472,0.774477386934673
"Bayes",0.584221105527638,0.769628140703518,1.21062311557789
