"","err","mad","mse"
"k-NN (najlepszy)",0.699433067897189,1.03506854357253,1.87894630529047
"Lasy losowe",0.581656177899074,0.729396978157628,1.06084353033064
"Regresja logistyczna",NA,NA,NA
"Bayes",0.666472452396556,0.970338184201313,1.72729533436874
