"","err","mad","mse"
"k-NN (najlepszy)",0.768421052631579,1.39689608636977,3.10647773279352
"Lasy losowe",0.675708502024292,1.19689608636977,2.65168690958165
"Regresja logistyczna",0.695411605937922,1.20499325236167,2.53292847503374
"Bayes",0.737112010796221,1.36666666666667,3.18421052631579
