"","err","mad","mse"
"k-NN (najlepszy)",0.958490566037736,2.94339622641509,11.5396226415094
"Lasy losowe",0.611320754716981,1.91320754716981,7.41509433962264
"Regresja logistyczna",NA,NA,NA
"Bayes",0.935849056603774,2.00754716981132,5.18490566037736
