"","err","mad","mse"
"k-NN (najlepszy)",0.58312948941953,0.939021549213745,2.01085226169676
"Lasy losowe",0.391341487089885,0.454552514074937,0.632304406911279
"Regresja logistyczna",0.405008736167734,0.482100562997476,0.683808969132207
"Bayes",0.541467676179383,0.756882158804116,1.37361677344205
